[{
    "id": 0,
    "name": "Milan St. Mary",
    "image": "/server/img/loc_0.jpg",
    "info": "<p><b>Milan St. Mary's Information</b><br><br>Telephone number: +39 02123456<br>Fax: +39 02123450<br>Email: milan_st_mary@myclinic.com<br>Address: Via Caravaggio 23, Milan, Italy<br>Clinic hours: 08:00 - 20:00</p>",
    "doctor": ["Abdel Hoda", "Berry Shanail", "Dutta Rachna", "Harders Marcus"],
    "service": ["Dental Services", "General Pediatrics"]
}, {
    "id": 1,
    "name": "Paul IX",
    "image": "/server/img/loc_1.jpg",
    "info": "<p><b>Paul IX's Information</b><br><br>Telephone number: +39 02123457<br>Fax: +39 02123451<br>Email: paul_ix@myclinic.com<br>Address: Via Michelangelo 11, Milan, Italy<br>Clinic hours: 08:00 - 20:00</p>",
    "doctor": ["Abghari Pamella", "Bala Elisa", "Ekstein Lauriece", "Greco Peter"],
    "service": ["Family Medicine", "Neurology", "Surgery"]
}, {
    "id": 2,
    "name": "Quarenghi",
    "image": "/server/img/loc_2.jpg",
    "info": "<p><b>Quarenghi's Information</b><br><br>Telephone number: +39 02123458<br>Fax: +39 02123452<br>Email: quarenghi@myclinic.com<br>Address: Via Leonardo 7, Milan, Italy<br>Clinic hours: 08:00 - 20:00</p>",
    "doctor": ["Bennet Elizabeth", "Camp William", "Ferguson D.Roy", "Irishnan Vidya"],
    "service": ["General Pediatrics", "Neurology", "Surgery"]
}]
